Statistics Support FAQs - Data wrangling for surveys & questionnaires
…
if you want, write this to a .csv file so that you can open it in excel and keep track (if you prefer).

now we can change the names of the variables

names(survdat) <- paste0("q", 1:ncol(survdat))
survdat

# A tibble: 76 × 59
   q1       q2 q3    q4    q5    q6    q7    q8    q9    q10   q11   q12   q13  
   <chr> <dbl> <chr> <chr> <chr> <chr> <chr> <chr> <chr> <chr> <chr> <chr> <chr>
 1 Dece…    73 Mode… Very… Mode… Mode… Neit… Mode… Mode… Mode… Mode… Neit… Neit…
 2 July     NA Neit… Mode… Mode… Neit… Mode… Mode… Mode… Mode… Neit… Neit… Mode…
 3 Nove…    75 Very… Very… Neit… Mode… Mode… Mode… Mode… Neit… Mode… Very… Mode…
 4 Nove…    75 Very… Mode… Mode… Mode… Very… Mode… Mode… Mode… Mode… Mode… Mode…
 5 July     66 Very… Very… Neit… Mode… Mode… Very… Neit… Neit… Mode… Mode… Neit…
 6 May      80 Mode… Very… Mode… Very… Very… Neit… Mode… Very… Neit… Mode… Mode…
 7 May      60 Mode… Very… Mode… Very… Mode… Mode… Mode… Mode… Neit… Mode… Neit…
 8 Augu…    60 Mode… Neit… Very… Very… Neit… Neit… Mode… Very… Very… Neit… Mode…
 9 July     90 Neit… Mode… Very… Very… Very… Neit… Very… Neit… Neit… Very… Mode…
10 June     85 Neit… Very… Mode… Mode… Mode… Neit… Mode… Mode… Mode… Mode… Neit…
# ℹ 66 more rows
# ℹ 46 more variables: q14 <chr>, q15 <chr>, q16 <chr>, q17 <chr>, q18 <chr>,
#   q19 <chr>, q20 <chr>, q21 <chr>, q22 <chr>, q23 <chr>, q24 <chr>,
#   q25 <chr>, q26 <chr>, q27 <chr>, q28 <chr>, q29 <chr>, q30 <chr>,
#   q31 <chr>, q32 <chr>, q33 <chr>, q34 <chr>, q35 <chr>, q36 <chr>,
#   q37 <chr>, q38 <chr>, q39 <chr>, q40 <chr>, q41 <chr>, q42 <chr>,
#   q43 <chr>, q44 <chr>, q45 <chr>, q46 <chr>, q47 <chr>, q48 <chr>, …
…
let’s see how we can do it for one question first: the recode() function can be very useful, but there are lots of other approaches

recode

survdat %>% 
  mutate(
    q3 = recode(q3, 
                "Very Inaccurate" = 1,
                "Moderately Inaccurate" = 2,
                "Neither Accurate nor Inaccurate" = 3,
                "Moderately Accurate" = 4,
                "Very Accurate" = 5)
  )

# A tibble: 76 × 59
   q1       q2    q3 q4    q5    q6    q7    q8    q9    q10   q11   q12   q13  
   <chr> <dbl> <dbl> <chr> <chr> <chr> <chr> <chr> <chr> <chr> <chr> <chr> <chr>
 1 Dece…    73     4 Very… Mode… Mode… Neit… Mode… Mode… Mode… Mode… Neit… Neit…
 2 July     NA     3 Mode… Mode… Neit… Mode… Mode… Mode… Mode… Neit… Neit… Mode…
 3 Nove…    75     1 Very… Neit… Mode… Mode… Mode… Mode… Neit… Mode… Very… Mode…
 4 Nove…    75     1 Mode… Mode… Mode… Very… Mode… Mode… Mode… Mode… Mode… Mode…
 5 July     66     1 Very… Neit… Mode… Mode… Very… Neit… Neit… Mode… Mode… Neit…
 6 May      80     4 Very… Mode… Very… Very… Neit… Mode… Very… Neit… Mode… Mode…
 7 May      60     2 Very… Mode… Very… Mode… Mode… Mode… Mode… Neit… Mode… Neit…
 8 Augu…    60     2 Neit… Very… Very… Neit… Neit… Mode… Very… Very… Neit… Mode…
 9 July     90     3 Mode… Very… Very… Very… Neit… Very… Neit… Neit… Very… Mode…
10 June     85     3 Very… Mode… Mode… Mode… Neit… Mode… Mode… Mode… Mode… Neit…
# ℹ 66 more rows
# ℹ 46 more variables: q14 <chr>, q15 <chr>, q16 <chr>, q17 <chr>, q18 <chr>,
#   q19 <chr>, q20 <chr>, q21 <chr>, q22 <chr>, q23 <chr>, q24 <chr>,
#   q25 <chr>, q26 <chr>, q27 <chr>, q28 <chr>, q29 <chr>, q30 <chr>,
#   q31 <chr>, q32 <chr>, q33 <chr>, q34 <chr>, q35 <chr>, q36 <chr>,
#   q37 <chr>, q38 <chr>, q39 <chr>, q40 <chr>, q41 <chr>, q42 <chr>,
#   q43 <chr>, q44 <chr>, q45 <chr>, q46 <chr>, q47 <chr>, q48 <chr>, …

ifelse

much more cumbersome as it requires multiple nested ifelse statements: also, to ensure that anyhing that isn’t one of the 5 valid response options gets to be an NA, we have the final “else” specifying that if it’s none of the prespecified options, make it an NA

survdat %>% 
  mutate(
    q3 = ifelse(q3 == "Very Inaccurate", 1,
                ifelse(q3 == "Moderately Inaccurate", 2, 
                       ifelse( q3 == "Neither Accurate nor Inaccurate", 3, 
                               ifelse(q3 == "Moderately Accurate", 4, 
                                      ifelse(q3 == "Very Accurate", 5, NA)))))
  )

# A tibble: 76 × 59
   q1       q2    q3 q4    q5    q6    q7    q8    q9    q10   q11   q12   q13  
   <chr> <dbl> <dbl> <chr> <chr> <chr> <chr> <chr> <chr> <chr> <chr> <chr> <chr>
 1 Dece…    73     4 Very… Mode… Mode… Neit… Mode… Mode… Mode… Mode… Neit… Neit…
 2 July     NA     3 Mode… Mode… Neit… Mode… Mode… Mode… Mode… Neit… Neit… Mode…
 3 Nove…    75     1 Very… Neit… Mode… Mode… Mode… Mode… Neit… Mode… Very… Mode…
 4 Nove…    75     1 Mode… Mode… Mode… Very… Mode… Mode… Mode… Mode… Mode… Mode…
 5 July     66     1 Very… Neit… Mode… Mode… Very… Neit… Neit… Mode… Mode… Neit…
 6 May      80     4 Very… Mode… Very… Very… Neit… Mode… Very… Neit… Mode… Mode…
 7 May      60     2 Very… Mode… Very… Mode… Mode… Mode… Mode… Neit… Mode… Neit…
 8 Augu…    60     2 Neit… Very… Very… Neit… Neit… Mode… Very… Very… Neit… Mode…
 9 July     90     3 Mode… Very… Very… Very… Neit… Very… Neit… Neit… Very… Mode…
10 June     85     3 Very… Mode… Mode… Mode… Neit… Mode… Mode… Mode… Mode… Neit…
# ℹ 66 more rows
# ℹ 46 more variables: q14 <chr>, q15 <chr>, q16 <chr>, q17 <chr>, q18 <chr>,
#   q19 <chr>, q20 <chr>, q21 <chr>, q22 <chr>, q23 <chr>, q24 <chr>,
#   q25 <chr>, q26 <chr>, q27 <chr>, q28 <chr>, q29 <chr>, q30 <chr>,
#   q31 <chr>, q32 <chr>, q33 <chr>, q34 <chr>, q35 <chr>, q36 <chr>,
#   q37 <chr>, q38 <chr>, q39 <chr>, q40 <chr>, q41 <chr>, q42 <chr>,
#   q43 <chr>, q44 <chr>, q45 <chr>, q46 <chr>, q47 <chr>, q48 <chr>, …
…
the final entry here TRUE ~ NA_real_ is a bit like saying “and if it is anything else, make it an NA”. - note we need to specify the type of NA - i.e. because we are making all of the entries numbers, it needs to be NA_real_. If were were making them characters, it would need to be NA_character

survdat %>% 
  mutate(
    q3 = case_when(
      q3 == "Very Inaccurate" ~ 1,
      q3 == "Moderately Inaccurate" ~ 2,
      q3 == "Neither Accurate nor Inaccurate" ~ 3,
      q3 == "Moderately Accurate" ~ 4,
      q3 == "Very Accurate" ~ 5,
      TRUE ~ NA_real_
    )
  )

# A tibble: 76 × 59
   q1       q2    q3 q4    q5    q6    q7    q8    q9    q10   q11   q12   q13  
   <chr> <dbl> <dbl> <chr> <chr> <chr> <chr> <chr> <chr> <chr> <chr> <chr> <chr>
 1 Dece…    73     4 Very… Mode… Mode… Neit… Mode… Mode… Mode… Mode… Neit… Neit…
 2 July     NA     3 Mode… Mode… Neit… Mode… Mode… Mode… Mode… Neit… Neit… Mode…
 3 Nove…    75     1 Very… Neit… Mode… Mode… Mode… Mode… Neit… Mode… Very… Mode…
 4 Nove…    75     1 Mode… Mode… Mode… Very… Mode… Mode… Mode… Mode… Mode… Mode…
 5 July     66     1 Very… Neit… Mode… Mode… Very… Neit… Neit… Mode… Mode… Neit…
 6 May      80     4 Very… Mode… Very… Very… Neit… Mode… Very… Neit… Mode… Mode…
 7 May      60     2 Very… Mode… Very… Mode… Mode… Mode… Mode… Neit… Mode… Neit…
 8 Augu…    60     2 Neit… Very… Very… Neit… Neit… Mode… Very… Very… Neit… Mode…
 9 July     90     3 Mode… Very… Very… Very… Neit… Very… Neit… Neit… Very… Mode…
10 June     85     3 Very… Mode… Mode… Mode… Neit… Mode… Mode… Mode… Mode… Neit…
# ℹ 66 more rows
# ℹ 46 more variables: q14 <chr>, q15 <chr>, q16 <chr>, q17 <chr>, q18 <chr>,
#   q19 <chr>, q20 <chr>, q21 <chr>, q22 <chr>, q23 <chr>, q24 <chr>,
#   q25 <chr>, q26 <chr>, q27 <chr>, q28 <chr>, q29 <chr>, q30 <chr>,
#   q31 <chr>, q32 <chr>, q33 <chr>, q34 <chr>, q35 <chr>, q36 <chr>,
#   q37 <chr>, q38 <chr>, q39 <chr>, q40 <chr>, q41 <chr>, q42 <chr>,
#   q43 <chr>, q44 <chr>, q45 <chr>, q46 <chr>, q47 <chr>, q48 <chr>, …
…
